@startuml

skinparam dpi 300
hide empty description
'scale max 800*500

skinparam DefaultFontName Roboto
skinparam DefaultFontSize 10
skinparam shadowing false

skinparam state {
'	BorderColor DarkGrey
'	BackgroundColor white

	ArrowColor black
	ArrowThickness 0.5
	ArrowFontSize 10
	ArrowFontName Roboto

	FontName Roboto
	FontStyle Bold
	FontSize 10
}

[*] --> RangeStart
RangeStart --> FromToSign : NonDigitFound
RangeStart --> RangesSplitter : CommaFound
RangeStart --> Finish : EOL

FromToSign --> CoverageData : ArrowSignFound
FromToSign --> RangeEnd : DigitFound

CoverageData --> RangesSplitter : CommaFound
CoverageData --> Finish : EOL

RangeEnd --> RangesSplitter : CommaFound
RangeEnd --> Finish : EOL

RangesSplitter --> SapceConsumption
SapceConsumption --> RangeStart : DigitFound

@enduml
